{
    "development": {
      "username": "postgres",
      "password": "root",
      "database": "skripsi-database-dev",
      "host": "127.0.0.1",
      "dialect": "postgres"
    },
    "test": {
      "username": "postgres",
      "password": "root",
      "database": "skripsi-database-test",
      "host": "127.0.0.1",
      "dialect": "postgres"
    },
    "production": {
      "use_env_variable": "DATABASE_URL",
      "dialect": "postgres",
      "dialectOptions": {
         "ssl": {
           "require": true,
           "rejectUnauthorized": false
         }
       }
     }
  }
  